{
  "project_info": {
    "project_number": "463263794291",
    "firebase_url": "https://fir-prasanthi-b5998-default-rtdb.firebaseio.com",
    "project_id": "fir-prasanthi-b5998",
    "storage_bucket": "fir-prasanthi-b5998.appspot.com"
  },
  "client": [
    {
      "client_info": {
        "mobilesdk_app_id": "1:463263794291:android:b53d2c1a8cc43f39105606",
        "android_client_info": {
          "package_name": "com.example.firebase_datastore1"
        }
      },
      "oauth_client": [
        {
          "client_id": "463263794291-celc402eatchpqqug222abk7ae2f4nm3.apps.googleusercontent.com",
          "client_type": 1,
          "android_info": {
            "package_name": "com.example.firebase_datastore1",
            "certificate_hash": "bfe62a2d1f558127ceeb07c9f0b108ad9ac73536"
          }
        },
        {
          "client_id": "463263794291-qdmq4sajcpaos1bh7cuv7444dugbblfa.apps.googleusercontent.com",
          "client_type": 3
        }
      ],
      "api_key": [
        {
          "current_key": "AIzaSyC98eTfPQ0uGik6sNzKVBMxywmfkWbA4-k"
        }
      ],
      "services": {
        "appinvite_service": {
          "other_platform_oauth_client": [
            {
              "client_id": "463263794291-qdmq4sajcpaos1bh7cuv7444dugbblfa.apps.googleusercontent.com",
              "client_type": 3
            }
          ]
        }
      }
    },
    {
      "client_info": {
        "mobilesdk_app_id": "1:463263794291:android:f161bc46b595ad2c105606",
        "android_client_info": {
          "package_name": "com.example.firebasedatastore"
        }
      },
      "oauth_client": [
        {
          "client_id": "463263794291-qdmq4sajcpaos1bh7cuv7444dugbblfa.apps.googleusercontent.com",
          "client_type": 3
        }
      ],
      "api_key": [
        {
          "current_key": "AIzaSyC98eTfPQ0uGik6sNzKVBMxywmfkWbA4-k"
        }
      ],
      "services": {
        "appinvite_service": {
          "other_platform_oauth_client": [
            {
              "client_id": "463263794291-qdmq4sajcpaos1bh7cuv7444dugbblfa.apps.googleusercontent.com",
              "client_type": 3
            }
          ]
        }
      }
    },
    {
      "client_info": {
        "mobilesdk_app_id": "1:463263794291:android:983e1664aa5c4617105606",
        "android_client_info": {
          "package_name": "com.example.myapplication"
        }
      },
      "oauth_client": [
        {
          "client_id": "463263794291-qdmq4sajcpaos1bh7cuv7444dugbblfa.apps.googleusercontent.com",
          "client_type": 3
        }
      ],
      "api_key": [
        {
          "current_key": "AIzaSyC98eTfPQ0uGik6sNzKVBMxywmfkWbA4-k"
        }
      ],
      "services": {
        "appinvite_service": {
          "other_platform_oauth_client": [
            {
              "client_id": "463263794291-qdmq4sajcpaos1bh7cuv7444dugbblfa.apps.googleusercontent.com",
              "client_type": 3
            }
          ]
        }
      }
    },
    {
      "client_info": {
        "mobilesdk_app_id": "1:463263794291:android:b811a905db3f84a4105606",
        "android_client_info": {
          "package_name": "com.example.myapplication5"
        }
      },
      "oauth_client": [
        {
          "client_id": "463263794291-qdmq4sajcpaos1bh7cuv7444dugbblfa.apps.googleusercontent.com",
          "client_type": 3
        }
      ],
      "api_key": [
        {
          "current_key": "AIzaSyC98eTfPQ0uGik6sNzKVBMxywmfkWbA4-k"
        }
      ],
      "services": {
        "appinvite_service": {
          "other_platform_oauth_client": [
            {
              "client_id": "463263794291-qdmq4sajcpaos1bh7cuv7444dugbblfa.apps.googleusercontent.com",
              "client_type": 3
            }
          ]
        }
      }
    }
  ],
  "configuration_version": "1"
}